dlab_bagh_chal/golden/tigerwin.vcd
$version Generated by VerilatedVcd $end
$timescale 1ps $end
 $scope module TOP $end
  $scope module bagh_chal $end
   $var wire 1 0 clk $end
   $var wire 1 1 rst_n $end
   $var wire 1 2 op_ready $end
   $var wire 1 3 op_valid $end
   $var wire 5 4 op_i [4:0] $end
   $var wire 5 5 op_j [4:0] $end
   $var wire 1 6 re_ready $end
   $var wire 1 7 re_valid $end
   $var wire 1 8 re_is_finished $end
   $var wire 4 9 re_possible_ops [3:0] $end
   $var wire 25 : re_selectable [24:0] $end
   $var wire 5 ; o_goats_in_hand [4:0] $end
   $var wire 5 < o_goats_killed [4:0] $end
   $var wire 32 #! S_GCH_OP [31:0] $end
   $var wire 32 $! S_GCH_RE [31:0] $end
   $var wire 32 %! S_GPL_OP [31:0] $end
   $var wire 32 &! S_GMV [31:0] $end
   $var wire 32 '! S_GCHECK [31:0] $end
   $var wire 32 (! S_GPL_RE [31:0] $end
   $var wire 32 )! S_TCH_OP [31:0] $end
   $var wire 32 *! S_TCH_RE [31:0] $end
   $var wire 32 +! S_TPL_OP [31:0] $end
   $var wire 32 ,! S_TMV [31:0] $end
   $var wire 32 -! S_TPL_RE [31:0] $end
   $var wire 32 #! OP_N [31:0] $end
   $var wire 32 $! OP_GCH [31:0] $end
   $var wire 32 %! OP_GRCHPL [31:0] $end
   $var wire 32 &! OP_GPL [31:0] $end
   $var wire 32 '! OP_TCH [31:0] $end
   $var wire 32 (! OP_TRCHPL [31:0] $end
   $var wire 32 #! GOAT [31:0] $end
   $var wire 32 $! TIGER [31:0] $end
   $var wire 25 .! GOAT_MASK [24:0] $end
   $var wire 25 /! TIGER_MASK [24:0] $end
   $var wire 1 = op_ready_nxt $end
   $var wire 1 > re_valid_nxt $end
   $var wire 1 ? re_is_finished_nxt $end
   $var wire 4 @ re_possible_ops_nxt [3:0] $end
   $var wire 4 A S [3:0] $end
   $var wire 4 B S_nxt [3:0] $end
   $var wire 25 C occupied [24:0] $end
   $var wire 25 D occupied_nxt [24:0] $end
   $var wire 25 E whos [24:0] $end
   $var wire 25 F whos_nxt [24:0] $end
   $var wire 5 G ci [4:0] $end
   $var wire 5 H ci_nxt [4:0] $end
   $var wire 5 I cj [4:0] $end
   $var wire 5 J cj_nxt [4:0] $end
   $var wire 5 K pi [4:0] $end
   $var wire 5 L pi_nxt [4:0] $end
   $var wire 5 M pj [4:0] $end
   $var wire 5 N pj_nxt [4:0] $end
   $var wire 5 O goats_in_hand [4:0] $end
   $var wire 5 P goats_in_hand_nxt [4:0] $end
   $var wire 5 Q goats_killed [4:0] $end
   $var wire 5 R goats_killed_nxt [4:0] $end
   $var wire 5 S t0i [4:0] $end
   $var wire 5 T t0i_nxt [4:0] $end
   $var wire 5 U t0j [4:0] $end
   $var wire 5 V t0j_nxt [4:0] $end
   $var wire 5 W t1i [4:0] $end
   $var wire 5 X t1i_nxt [4:0] $end
   $var wire 5 Y t1j [4:0] $end
   $var wire 5 Z t1j_nxt [4:0] $end
   $var wire 5 [ t2i [4:0] $end
   $var wire 5 \ t2i_nxt [4:0] $end
   $var wire 5 ] t2j [4:0] $end
   $var wire 5 ^ t2j_nxt [4:0] $end
   $var wire 5 _ t3i [4:0] $end
   $var wire 5 ` t3i_nxt [4:0] $end
   $var wire 5 a t3j [4:0] $end
   $var wire 5 b t3j_nxt [4:0] $end
   $var wire 4 c check_tiger_id [3:0] $end
   $var wire 4 d check_tiger_id_nxt [3:0] $end
   $var wire 1 e op_fire $end
   $var wire 1 f re_fire $end
   $var wire 5 g i_dist [4:0] $end
   $var wire 5 h j_dist [4:0] $end
   $var wire 5 i opij2idx [4:0] $end
   $var wire 5 j cij2idx [4:0] $end
   $var wire 5 k pij2idx [4:0] $end
   $var wire 5 l su_ci [4:0] $end
   $var wire 5 m su_cj [4:0] $end
   $var wire 1 n su_o_tigers_cantmove $end
   $var wire 25 o su_o_update [24:0] $end
   $var wire 32 p idx [31:0] $end
   $scope module su $end
    $var wire 25 q occupied [24:0] $end
    $var wire 25 r whos [24:0] $end
    $var wire 4 s S [3:0] $end
    $var wire 5 t ci [4:0] $end
    $var wire 5 u cj [4:0] $end
    $var wire 5 v goats_in_hand [4:0] $end
    $var wire 1 w o_tigers_cantmove $end
    $var wire 25 x o_update [24:0] $end
    $var wire 32 #! S_GCH_OP [31:0] $end
    $var wire 32 $! S_GCH_RE [31:0] $end
    $var wire 32 %! S_GPL_OP [31:0] $end
    $var wire 32 &! S_GMV [31:0] $end
    $var wire 32 '! S_GCHECK [31:0] $end
    $var wire 32 (! S_GPL_RE [31:0] $end
    $var wire 32 )! S_TCH_OP [31:0] $end
    $var wire 32 *! S_TCH_RE [31:0] $end
    $var wire 32 +! S_TPL_OP [31:0] $end
    $var wire 32 ,! S_TMV [31:0] $end
    $var wire 32 -! S_TPL_RE [31:0] $end
    $var wire 32 #! GOAT [31:0] $end
    $var wire 32 $! TIGER [31:0] $end
    $var wire 25 .! GOAT_MASK [24:0] $end
    $var wire 25 /! TIGER_MASK [24:0] $end
    $var wire 25 y all_vacant [24:0] $end
    $var wire 25 z all_goat [24:0] $end
    $var wire 25 { all_tiger [24:0] $end
    $var wire 25 | cgoat_can_goto [24:0] $end
    $var wire 25 } ctiger_can_goto [24:0] $end
    $var wire 25 ~ ctiger_can_jumpto [24:0] $end
    $var wire 32 !! idx [31:0] $end
    $var wire 32 "! jdx [31:0] $end
   $upscope $end
  $upscope $end
  $var wire 1 # clk $end
  $var wire 1 $ rst_n $end
  $var wire 1 % op_ready $end
  $var wire 1 & op_valid $end
  $var wire 5 ' op_i [4:0] $end
  $var wire 5 ( op_j [4:0] $end
  $var wire 1 ) re_ready $end
  $var wire 1 * re_valid $end
  $var wire 1 + re_is_finished $end
  $var wire 4 , re_possible_ops [3:0] $end
  $var wire 25 - re_selectable [24:0] $end
  $var wire 5 . o_goats_in_hand [4:0] $end
  $var wire 5 / o_goats_killed [4:0] $end
 $upscope $end
$enddefinitions $end


#5
0#
0$
0%
0&
b00000 '
b00000 (
0)
0*
0+
b0000 ,
b0000000000000000000000000 -
b00000 .
b00000 /
00
01
02
03
b00000 4
b00000 5
06
07
08
b0000 9
b0000000000000000000000000 :
b00000 ;
b00000 <
0=
0>
0?
b0000 @
b0000 A
b0000 B
b0000000000000000000000000 C
b0000000000000000000000000 D
b0000000000000000000000000 E
b0000000000000000000000000 F
b00000 G
b00000 H
b00000 I
b00000 J
b00000 K
b00000 L
b00000 M
b00000 N
b00000 O
b00000 P
b00000 Q
b00000 R
b00000 S
b00000 T
b00000 U
b00000 V
b00000 W
b00000 X
b00000 Y
b00000 Z
b00000 [
b00000 \
b00000 ]
b00000 ^
b00000 _
b00000 `
b00000 a
b00000 b
b0000 c
b0000 d
0e
0f
b00000 g
b00000 h
b00000 i
b00000 j
b00000 k
b00000 l
b00000 m
0n
b0000000000000000000000000 o
b00000000000000000000000000000000 p
b0000000000000000000000000 q
b0000000000000000000000000 r
b0000 s
b00000 t
b00000 u
b00000 v
0w
b0000000000000000000000000 x
b1111111111111111111111111 y
b0000000000000000000000000 z
b0000000000000000000000000 {
b0000000000000000001100010 |
b0000000000000000001100010 }
b0000000000000000000000000 ~
b00000000000000000000000000000101 !!
b00000000000000000000000000000101 "!
b00000000000000000000000000000000 #!
b00000000000000000000000000000001 $!
b00000000000000000000000000000010 %!
b00000000000000000000000000000011 &!
b00000000000000000000000000000100 '!
b00000000000000000000000000000101 (!
b00000000000000000000000000000110 )!
b00000000000000000000000000000111 *!
b00000000000000000000000000001000 +!
b00000000000000000000000000001001 ,!
b00000000000000000000000000001010 -!
b0000000000000000000000000 .!
b1111111111111111111111111 /!
#10
1#
1%
b10100 .
10
12
b10100 ;
1=
b0010 A
b0010 B
b1000100000000000000010001 C
b1000100000000000000010001 D
b1000100000000000000010001 E
b1000100000000000000010001 F
b10100 O
b10100 P
b00100 Y
b00100 Z
b00100 [
b00100 \
b00100 _
b00100 `
b00100 a
b00100 b
b00000000000000000000000000011001 p
b1000100000000000000010001 q
b1000100000000000000010001 r
b0010 s
b10100 v
b0111011111111111111101110 y
b1000100000000000000010001 {
#15
0#
00
#20
1#
10
#25
0#
1$
00
11
#30
1#
10
#35
0#
00
#40
1#
10
#45
0#
1&
b00010 '
b00100 (
00
13
b00010 4
b00100 5
0=
b0011 B
b00010 L
b00100 N
1e
b01110 i
#50
1#
0%
10
02
b0100 @
b0011 A
b0100 B
b1000100000100000000010001 D
b00010 K
b00100 M
b10011 P
0e
b01110 k
b0011 s
#55
0#
0&
1)
00
03
16
#60
1#
b0100 ,
b10011 .
10
b0100 9
b10011 ;
1>
b0100 A
b0101 B
b1000100000100000000010001 C
b10011 O
b1000100000100000000010001 q
b0100 s
b10011 v
b0111011111011111111101110 y
b0000000000100000000000000 z
#65
0#
00
#70
1#
1*
b1000100000000000000010001 -
10
17
b1000100000000000000010001 :
1=
0>
b0000 @
b0101 A
b0110 B
b00000 L
b00000 N
1f
b1000100000000000000010001 o
b0101 s
b1000100000000000000010001 x
#75
0#
00
#80
1#
1%
0*
b0000 ,
b0000000000000000000000000 -
10
12
07
b0000 9
b0000000000000000000000000 :
b0110 A
b00000 K
b00000 M
0f
b00000 k
b0000000000000000000000000 o
b0110 s
b0000000000000000000000000 x
#85
0#
0)
00
06
#90
1#
10
#95
0#
00
#100
1#
10
#105
0#
1&
b00000 '
00
13
b00000 4
0=
1>
b0101 @
b0111 B
b00100 J
1e
b00100 i
#110
1#
0%
1*
b0101 ,
b1000100000000001100011001 -
10
02
17
b0101 9
b1000100000000001100011001 :
b0111 A
b00100 I
0e
b00100 j
b00100 m
b1000100000000001100011001 o
b0111 s
b00100 u
b1000100000000001100011001 x
b0000000000000001100001000 |
b0000000000000001100001000 }
#115
0#
0&
1)
00
03
16
1=
0>
b0000 @
b1000 B
1f
#120
1#
1%
0*
b0000 ,
b0000000000000000000000000 -
10
12
07
b0000 9
b0000000000000000000000000 :
b1000 A
0f
b0000000000000000000000000 o
b1000 s
b0000000000000000000000000 x
#125
0#
0)
00
06
#130
1#
10
#135
0#
00
#140
1#
10
#145
0#
1&
b00001 '
b00011 (
00
13
b00001 4
b00011 5
0=
b1001 B
b00001 L
b00011 N
1e
b01000 i
#150
1#
0%
10
02
1>
b0011 @
b1001 A
b1010 B
b1000100000100000100000001 D
b1000100000000000100000001 F
b00001 K
b00011 M
b00001 X
b00011 Z
0e
b00001 g
b11111 h
b01000 k
b1001 s
#155
0#
0&
1)
00
03
16
#160
1#
1*
b0011 ,
b0111011111011111011111110 -
10
17
b0011 9
b0111011111011111011111110 :
1=
0>
b0000 @
b1010 A
b0010 B
b1000100000100000100000001 C
b1000100000000000100000001 E
b00000 J
b00000 L
b00000 N
b00001 W
b00011 Y
1f
b0111011111011111011111110 o
b1000100000100000100000001 q
b1000100000000000100000001 r
b1010 s
b0111011111011111011111110 x
b0111011111011111011111110 y
b1000100000000000100000001 {
#165
0#
00
#170
1#
1%
0*
b0000 ,
b0000000000000000000000000 -
10
12
07
b0000 9
b0000000000000000000000000 :
b0010 A
b00000 I
b00000 K
b00000 M
0f
b00000 j
b00000 k
b00000 m
b0000000000000000000000000 o
b0010 s
b00000 u
b0000000000000000000000000 x
b0000000000000000001100010 |
b0000000000000000001100010 }
#175
0#
0)
00
06
#180
1#
10
#185
0#
00
#190
1#
10
#195
0#
1&
b00100 (
00
13
b00100 5
0=
b0011 B
b00001 L
b00100 N
1e
b01001 i
#200
1#
0%
10
02
b0100 @
b0011 A
b0100 B
b1000100000100001100000001 D
b00001 K
b00100 M
b10010 P
0e
b01001 k
b0011 s
#205
0#
0&
1)
00
03
16
#210
1#
b0100 ,
b10010 .
10
b0100 9
b10010 ;
1>
b0100 A
b0101 B
b1000100000100001100000001 C
b10010 O
b1000100000100001100000001 q
b0100 s
b10010 v
b0111011111011110011111110 y
b0000000000100001000000000 z
#215
0#
00
#220
1#
1*
b1000100000000000100000001 -
10
17
b1000100000000000100000001 :
1=
0>
b0000 @
b0101 A
b0110 B
b00000 L
b00000 N
1f
b1000100000000000100000001 o
b0101 s
b1000100000000000100000001 x
#225
0#
00
#230
1#
1%
0*
b0000 ,
b0000000000000000000000000 -
10
12
07
b0000 9
b0000000000000000000000000 :
b0110 A
b00000 K
b00000 M
0f
b00000 k
b0000000000000000000000000 o
b0110 s
b0000000000000000000000000 x
#235
0#
0)
00
06
#240
1#
10
#245
0#
00
#250
1#
10
#255
0#
1&
b00100 '
b00000 (
00
13
b00100 4
b00000 5
0=
1>
b0101 @
b0111 B
b00100 H
1e
b10100 i
#260
1#
0%
1*
b0101 ,
b1001100011000000100000001 -
10
02
17
b0101 9
b1001100011000000100000001 :
b0111 A
b00100 G
0e
b10100 j
b00100 l
b1001100011000000100000001 o
b0111 s
b00100 t
b1001100011000000100000001 x
b0001000011000000000000000 |
b0001000011000000000000000 }
#265
0#
0&
1)
00
03
16
1=
0>
b0000 @
b1000 B
1f
#270
1#
1%
0*
b0000 ,
b0000000000000000000000000 -
10
12
07
b0000 9
b0000000000000000000000000 :
b1000 A
0f
b0000000000000000000000000 o
b1000 s
b0000000000000000000000000 x
#275
0#
0)
00
06
#280
1#
10
#285
0#
00
#290
1#
10
#295
0#
1&
b00001 (
00
13
b00001 5
0=
b1001 B
b00100 L
b00001 N
1e
b10101 i
#300
1#
0%
10
02
1>
b0011 @
b1001 A
b1010 B
b1001000000100001100000001 D
b1001000000000000100000001 F
b00100 K
b00001 M
b00001 ^
0e
b00000 g
b00001 h
b10101 k
b1001 s
#305
0#
0&
1)
00
03
16
#310
1#
1*
b0011 ,
b0110111111011110011111110 -
10
17
b0011 9
b0110111111011110011111110 :
1=
0>
b0000 @
b1010 A
b0010 B
b1001000000100001100000001 C
b1001000000000000100000001 E
b00000 H
b00000 L
b00000 N
b00001 ]
1f
b0110111111011110011111110 o
b1001000000100001100000001 q
b1001000000000000100000001 r
b1010 s
b0110111111011110011111110 x
b0110111111011110011111110 y
b1001000000000000100000001 {
#315
0#
00
#320
1#
1%
0*
b0000 ,
b0000000000000000000000000 -
10
12
07
b0000 9
b0000000000000000000000000 :
b0010 A
b00000 G
b00000 K
b00000 M
0f
b00000 j
b00000 k
b00000 l
b0000000000000000000000000 o
b0010 s
b00000 t
b0000000000000000000000000 x
b0000000000000000001100010 |
b0000000000000000001100010 }
#325
0#
0)
00
06
#330
1#
10
#335
0#
00
#340
1#
10
#345
0#
1&
b00011 '
b00100 (
00
13
b00011 4
b00100 5
0=
b0011 B
b00011 L
b00100 N
1e
b10011 i
#350
1#
0%
10
02
b0100 @
b0011 A
b0100 B
b1001010000100001100000001 D
b00011 K
b00100 M
b10001 P
0e
b10011 k
b0011 s
#355
0#
0&
1)
00
03
16
#360
1#
b0100 ,
b10001 .
10
b0100 9
b10001 ;
1>
b0100 A
b0101 B
b1001010000100001100000001 C
b10001 O
b1001010000100001100000001 q
b0100 s
b10001 v
b0110101111011110011111110 y
b0000010000100001000000000 z
#365
0#
00
#370
1#
1*
b1001000000000000100000001 -
10
17
b1001000000000000100000001 :
1=
0>
b0000 @
b0101 A
b0110 B
b00000 L
b00000 N
1f
b1001000000000000100000001 o
b0101 s
b1001000000000000100000001 x
#375
0#
00
#380
1#
1%
0*
b0000 ,
b0000000000000000000000000 -
10
12
07
b0000 9
b0000000000000000000000000 :
b0110 A
b00000 K
b00000 M
0f
b00000 k
b0000000000000000000000000 o
b0110 s
b0000000000000000000000000 x
#385
0#
0)
00
06
#390
1#
10
#395
0#
00
#400
1#
10
#405
0#
1&
b00000 '
b00000 (
00
13
b00000 4
b00000 5
0=
1>
b0101 @
b0111 B
1e
b00000 i
#410
1#
0%
1*
b0101 ,
b1001000000000000101100011 -
10
02
17
b0101 9
b1001000000000000101100011 :
b0111 A
0e
b1001000000000000101100011 o
b0111 s
b1001000000000000101100011 x
#415
0#
0&
1)
00
03
16
1=
0>
b0000 @
b1000 B
1f
#420
1#
1%
0*
b0000 ,
b0000000000000000000000000 -
10
12
07
b0000 9
b0000000000000000000000000 :
b1000 A
0f
b0000000000000000000000000 o
b1000 s
b0000000000000000000000000 x
#425
0#
0)
00
06
#430
1#
10
#435
0#
00
#440
1#
10
#445
0#
1&
b00001 '
00
13
b00001 4
0=
b1001 B
b00001 L
1e
b00101 i
#450
1#
0%
10
02
1>
b0011 @
b1001 A
b1010 B
b1001010000100001100100000 D
b1001000000000000100100000 F
b00001 K
b00001 T
0e
b00001 g
b00000 h
b00101 k
b1001 s
#455
0#
0&
1)
00
03
16
#460
1#
1*
b0011 ,
b0110101111011110011011111 -
10
17
b0011 9
b0110101111011110011011111 :
1=
0>
b0000 @
b1010 A
b0010 B
b1001010000100001100100000 C
b1001000000000000100100000 E
b00000 L
b00001 S
1f
b0110101111011110011011111 o
b1001010000100001100100000 q
b1001000000000000100100000 r
b1010 s
b0110101111011110011011111 x
b0110101111011110011011111 y
b1001000000000000100100000 {
#465
0#
00
#470
1#
1%
0*
b0000 ,
b0000000000000000000000000 -
10
12
07
b0000 9
b0000000000000000000000000 :
b0010 A
b00000 K
0f
b00000 k
b0000000000000000000000000 o
b0010 s
b0000000000000000000000000 x
#475
0#
0)
00
06
#480
1#
10
#485
0#
00
#490
1#
10
#495
0#
1&
b00000 '
b00010 (
00
13
b00000 4
b00010 5
0=
b0011 B
b00010 N
1e
b00010 i
#500
1#
0%
10
02
b0100 @
b0011 A
b0100 B
b1001010000100001100100100 D
b00010 M
b10000 P
0e
b00010 k
b0011 s
#505
0#
0&
1)
00
03
16
#510
1#
b0100 ,
b10000 .
10
b0100 9
b10000 ;
1>
b0100 A
b0101 B
b1001010000100001100100100 C
b10000 O
b00001 l
b1001010000100001100100100 q
b0100 s
b00001 t
b10000 v
b0110101111011110011011011 y
b0000010000100001000000100 z
b0000000000000010001000001 |
b0000000000000010001000001 }
#515
0#
00
#520
1#
1*
b1001000000000000100100000 -
10
17
b1001000000000000100100000 :
1=
0>
b0000 @
b0101 A
b0110 B
b00000 N
1f
b00000 l
b1001000000000000100100000 o
b0101 s
b00000 t
b1001000000000000100100000 x
b0000000000000000001100010 |
b0000000000000000001100010 }
#525
0#
00
#530
1#
1%
0*
b0000 ,
b0000000000000000000000000 -
10
12
07
b0000 9
b0000000000000000000000000 :
b0110 A
b00000 M
0f
b00000 k
b0000000000000000000000000 o
b0110 s
b0000000000000000000000000 x
#535
0#
0)
00
06
#540
1#
10
#545
0#
00
#550
1#
10
#555
0#
1&
b00001 '
b00011 (
00
13
b00001 4
b00011 5
0=
1>
b0101 @
b0111 B
b00001 H
b00011 J
1e
b01000 i
#560
1#
0%
1*
b0101 ,
b1001000000011000110111000 -
10
02
17
b0101 9
b1001000000011000110111000 :
b0111 A
b00001 G
b00011 I
0e
b01000 j
b00001 l
b00011 m
b1001000000011000110111000 o
b0111 s
b00001 t
b00011 u
b1001000000011000110111000 x
b0000000000111001010011100 |
b0000000000111001010011100 }
#565
0#
0&
1)
00
03
16
1=
0>
b0000 @
b1000 B
1f
#570
1#
1%
0*
b0000 ,
b0000000000000000000000000 -
10
12
07
b0000 9
b0000000000000000000000000 :
b1000 A
0f
b0000000000000000000000000 o
b1000 s
b0000000000000000000000000 x
#575
0#
0)
00
06
#580
1#
10
#585
0#
00
#590
1#
10
#595
0#
1&
b00000 '
00
13
b00000 4
0=
b1001 B
b00011 N
1e
b00011 i
#600
1#
0%
10
02
1>
b0011 @
b1001 A
b1010 B
b1001010000100001000101100 D
b1001000000000000000101000 F
b00011 M
b00000 X
0e
b11111 g
b00011 k
b1001 s
#605
0#
0&
1)
00
03
16
#610
1#
1*
b0011 ,
b0110101111011110111010011 -
10
17
b0011 9
b0110101111011110111010011 :
1=
0>
b0000 @
b1010 A
b0010 B
b1001010000100001000101100 C
b1001000000000000000101000 E
b00000 H
b00000 J
b00000 N
b00000 W
1f
b0110101111011110111010011 o
b1001010000100001000101100 q
b1001000000000000000101000 r
b1010 s
b0110101111011110111010011 x
b0110101111011110111010011 y
b1001000000000000000101000 {
#615
0#
00
#620
1#
1%
0*
b0000 ,
b0000000000000000000000000 -
10
12
07
b0000 9
b0000000000000000000000000 :
b0010 A
b00000 G
b00000 I
b00000 M
0f
b00000 j
b00000 k
b00000 l
b00000 m
b0000000000000000000000000 o
b0010 s
b00000 t
b00000 u
b0000000000000000000000000 x
b0000000000000000001100010 |
b0000000000000000001100010 }
#625
0#
0)
00
06
#630
1#
10
#635
0#
00
#640
1#
10
#645
0#
1&
b00001 (
00
13
b00001 5
0=
b0011 B
b00001 N
1e
b00001 i
#650
1#
0%
10
02
b0100 @
b0011 A
b0100 B
b1001010000100001000101110 D
b00001 M
b01111 P
0e
b00001 k
b0011 s
#655
0#
0&
1)
00
03
16
#660
1#
b0100 ,
b01111 .
10
b0100 9
b01111 ;
1>
b0100 A
b0101 B
b1001010000100001000101110 C
b01111 O
b00001 l
b1001010000100001000101110 q
b0100 s
b00001 t
b01111 v
b0110101111011110111010001 y
b0000010000100001000000110 z
b0000000000000010001000001 |
b0000000000000010001000001 }
#665
0#
00
#670
1#
1*
b1001000000000000000101000 -
10
17
b1001000000000000000101000 :
1=
0>
b0000 @
b0101 A
b0110 B
b00000 N
1f
b00000 l
b1001000000000000000101000 o
b0101 s
b00000 t
b1001000000000000000101000 x
b0000000000000000001100010 |
b0000000000000000001100010 }
b0000000000000000000000100 ~
#675
0#
00
#680
1#
1%
0*
b0000 ,
b0000000000000000000000000 -
10
12
07
b0000 9
b0000000000000000000000000 :
b0110 A
b00000 M
0f
b00000 k
b0000000000000000000000000 o
b0110 s
b0000000000000000000000000 x
#685
0#
0)
00
06
#690
1#
10
#695
0#
00
#700
1#
10
#705
0#
1&
b00100 '
b00100 (
00
13
b00100 4
b00100 5
0=
1>
b0101 @
b0111 B
b00100 H
b00100 J
1e
b11000 i
#710
1#
0%
1*
b0101 ,
b1101001000000000000101000 -
10
02
17
b0101 9
b1101001000000000000101000 :
b0111 A
b00100 G
b00100 I
0e
b11000 j
b00100 l
b00100 m
b1101001000000000000101000 o
b0111 s
b00100 t
b00100 u
b1101001000000000000101000 x
b0100011000000000000000000 |
b0100011000000000000000000 }
b0000000000100000000000000 ~
#715
0#
0&
1)
00
03
16
1=
0>
b0000 @
b1000 B
1f
#720
1#
1%
0*
b0000 ,
b0000000000000000000000000 -
10
12
07
b0000 9
b0000000000000000000000000 :
b1000 A
0f
b0000000000000000000000000 o
b1000 s
b0000000000000000000000000 x
#725
0#
0)
00
06
#730
1#
10
#735
0#
00
#740
1#
10
#745
0#
1&
b00011 '
b00011 (
00
13
b00011 4
b00011 5
0=
b1001 B
b00011 L
b00011 N
1e
b10010 i
#750
1#
0%
10
02
1>
b0011 @
b1001 A
b1010 B
b0001011000100001000101110 D
b0001001000000000000101000 F
b00011 K
b00011 M
b00011 `
b00011 b
0e
b11111 h
b10010 k
b1001 s
#755
0#
0&
1)
00
03
16
#760
1#
1*
b0011 ,
b1110100111011110111010001 -
10
17
b0011 9
b1110100111011110111010001 :
1=
0>
b0000 @
b1010 A
b0010 B
b0001011000100001000101110 C
b0001001000000000000101000 E
b00000 H
b00000 J
b00000 L
b00000 N
b00011 _
b00011 a
1f
b1110100111011110111010001 o
b0001011000100001000101110 q
b0001001000000000000101000 r
b1010 s
b1110100111011110111010001 x
b1110100111011110111010001 y
b0001001000000000000101000 {
#765
0#
00
#770
1#
1%
0*
b0000 ,
b0000000000000000000000000 -
10
12
07
b0000 9
b0000000000000000000000000 :
b0010 A
b00000 G
b00000 I
b00000 K
b00000 M
0f
b00000 j
b00000 k
b00000 l
b00000 m
b0000000000000000000000000 o
b0010 s
b00000 t
b00000 u
b0000000000000000000000000 x
b0000000000000000001100010 |
b0000000000000000001100010 }
b0000000000000000000000100 ~
#775
0#
0)
00
06
#780
1#
10
#785
0#
00
#790
1#
10
#795
0#
1&
b00100 '
b00100 (
00
13
b00100 4
b00100 5
0=
b0011 B
b00100 L
b00100 N
1e
b11000 i
#800
1#
0%
10
02
b0100 @
b0011 A
b0100 B
b1001011000100001000101110 D
b00100 K
b00100 M
b01110 P
0e
b11000 k
b0011 s
#805
0#
0&
1)
00
03
16
#810
1#
b0100 ,
b01110 .
10
b0100 9
b01110 ;
1>
b0100 A
b0101 B
b1001011000100001000101110 C
b01110 O
b00001 l
b1001011000100001000101110 q
b0100 s
b00001 t
b01110 v
b0110100111011110111010001 y
b1000010000100001000000110 z
b0000000000000010001000001 |
b0000000000000010001000001 }
b0000000000000000000000000 ~
#815
0#
00
#820
1#
1*
b0001001000000000000101000 -
10
17
b0001001000000000000101000 :
1=
0>
b0000 @
b0101 A
b0110 B
b00000 L
b00000 N
1f
b00000 l
b0001001000000000000101000 o
b0101 s
b00000 t
b0001001000000000000101000 x
b0000000000000000001100010 |
b0000000000000000001100010 }
b0000000000000000000000100 ~
#825
0#
00
#830
1#
1%
0*
b0000 ,
b0000000000000000000000000 -
10
12
07
b0000 9
b0000000000000000000000000 :
b0110 A
b00000 K
b00000 M
0f
b00000 k
b0000000000000000000000000 o
b0110 s
b0000000000000000000000000 x
#835
0#
0)
00
06
#840
1#
10
#845
0#
00
#850
1#
10
#855
0#
1&
b00001 (
00
13
b00001 5
0=
1>
b0101 @
b0111 B
b00100 H
b00001 J
1e
b10101 i
#860
1#
0%
1*
b0101 ,
b0011101010000000000101000 -
10
02
17
b0101 9
b0011101010000000000101000 :
b0111 A
b00100 G
b00001 I
0e
b10101 j
b00100 l
b00001 m
b0011101010000000000101000 o
b0111 s
b00100 t
b00001 u
b0011101010000000000101000 x
b0010100010000000000000000 |
b0010100010000000000000000 }
b0000000000000000000000000 ~
#865
0#
0&
1)
00
03
16
1=
0>
b0000 @
b1000 B
1f
#870
1#
1%
0*
b0000 ,
b0000000000000000000000000 -
10
12
07
b0000 9
b0000000000000000000000000 :
b1000 A
0f
b0000000000000000000000000 o
b1000 s
b0000000000000000000000000 x
#875
0#
0)
00
06
#880
1#
10
#885
0#
00
#890
1#
10
#895
0#
1&
b00010 (
00
13
b00010 5
0=
b1001 B
b00100 L
b00010 N
1e
b10110 i
#900
1#
0%
10
02
1>
b0011 @
b1001 A
b1010 B
b1010011000100001000101110 D
b0010001000000000000101000 F
b00100 K
b00010 M
b00010 ^
0e
b00000 g
b00001 h
b10110 k
b1001 s
#905
0#
0&
1)
00
03
16
#910
1#
1*
b0011 ,
b0101100111011110111010001 -
10
17
b0011 9
b0101100111011110111010001 :
1=
0>
b0000 @
b1010 A
b0010 B
b1010011000100001000101110 C
b0010001000000000000101000 E
b00000 H
b00000 J
b00000 L
b00000 N
b00010 ]
1f
b0101100111011110111010001 o
b1010011000100001000101110 q
b0010001000000000000101000 r
b1010 s
b0101100111011110111010001 x
b0101100111011110111010001 y
b0010001000000000000101000 {
#915
0#
00
#920
1#
1%
0*
b0000 ,
b0000000000000000000000000 -
10
12
07
b0000 9
b0000000000000000000000000 :
b0010 A
b00000 G
b00000 I
b00000 K
b00000 M
0f
b00000 j
b00000 k
b00000 l
b00000 m
b0000000000000000000000000 o
b0010 s
b00000 t
b00000 u
b0000000000000000000000000 x
b0000000000000000001100010 |
b0000000000000000001100010 }
b0000000000000000000000100 ~
#925
0#
0)
00
06
#930
1#
10
#935
0#
00
#940
1#
10
#945
0#
1&
b00011 (
00
13
b00011 5
0=
b0011 B
b00100 L
b00011 N
1e
b10111 i
#950
1#
0%
10
02
b0100 @
b0011 A
b0100 B
b1110011000100001000101110 D
b00100 K
b00011 M
b01101 P
0e
b10111 k
b0011 s
#955
0#
0&
1)
00
03
16
#960
1#
b0100 ,
b01101 .
10
b0100 9
b01101 ;
1>
b0100 A
b0101 B
b1110011000100001000101110 C
b01101 O
b00001 l
b1110011000100001000101110 q
b0100 s
b00001 t
b01101 v
b0001100111011110111010001 y
b1100010000100001000000110 z
b0000000000000010001000001 |
b0000000000000010001000001 }
b0000000000000000000000000 ~
#965
0#
00
#970
1#
1*
b0010001000000000000101000 -
10
17
b0010001000000000000101000 :
1=
0>
b0000 @
b0101 A
b0110 B
b00000 L
b00000 N
1f
b00000 l
b0010001000000000000101000 o
b0101 s
b00000 t
b0010001000000000000101000 x
b0000000000000000001100010 |
b0000000000000000001100010 }
b0000000000000000000000100 ~
#975
0#
00
#980
1#
1%
0*
b0000 ,
b0000000000000000000000000 -
10
12
07
b0000 9
b0000000000000000000000000 :
b0110 A
b00000 K
b00000 M
0f
b00000 k
b0000000000000000000000000 o
b0110 s
b0000000000000000000000000 x
#985
0#
0)
00
06
#990
1#
10
#995
0#
00
#1000
1#
10
#1005
0#
1&
b00010 (
00
13
b00010 5
0=
1>
b0101 @
b0111 B
b00100 H
b00010 J
1e
b10110 i
#1010
1#
0%
1*
b0101 ,
b0011001110000000000101000 -
10
02
17
b0101 9
b0011001110000000000101000 :
b0111 A
b00100 G
b00010 I
0e
b10110 j
b00100 l
b00010 m
b0011001110000000000101000 o
b0111 s
b00100 t
b00010 u
b0011001110000000000101000 x
b0101001110000000000000000 |
b0101001110000000000000000 }
b1000000000000000000000000 ~
#1015
0#
0&
1)
00
03
16
1=
0>
b0000 @
b1000 B
1f
#1020
1#
1%
0*
b0000 ,
b0000000000000000000000000 -
10
12
07
b0000 9
b0000000000000000000000000 :
b1000 A
0f
b0000000000000000000000000 o
b1000 s
b0000000000000000000000000 x
#1025
0#
0)
00
06
#1030
1#
10
#1035
0#
00
#1040
1#
10
#1045
0#
1&
b00011 '
00
13
b00011 4
0=
b1001 B
b00011 L
b00010 N
1e
b10001 i
#1050
1#
0%
10
02
1>
b0011 @
b1001 A
b1010 B
b1100011100100001000101110 D
b0000001100000000000101000 F
b00011 K
b00010 M
b00011 \
0e
b11111 g
b00000 h
b10001 k
b1001 s
